###########################################
##### REPLICA COMPONENTES SCOM - SC4J #####
###########################################


Se encontraron 10 registro(s) en med_componente para procesar.

El componente existe en el SC4J. Se actualizará el registro.

Valor anterior: MedComponenteSC4J(idComponente=32167412411168, idModelo=7610141421289292, idEstComponente=18, fecCreacion=2023-01-21 13:06:16.0, idPropiedad=12, anoFabricacion=null, nroFabrica=null, idAccionRealizada=null, idCondCreacion=null, esControlInterno=N, esPrototipo=N, idTipTransfor=null, codTipComponente=ME, idEquipo=null, idRespMedicion=null, idModMedicion=null, telMedicion=null, ubiInstalacion=null, idUbicacion=10952800, typeUbicacion=com.synapsis.synergia.nucleo.domain.interfaces.servicioelectrico.ServicioElectrico, idDynamicobject=2627458, horaReloj=null, horaVerif=null, idRelacion=null, idNev=null, idTipMedida=null, nroComponente=9535, ubicacionInstMedidor=null, fechaSuministro=2023-01-17 00:00:00.0, suministradorComponente=null, reacondicionado=N, idMotivoBaja=null, factorInterno=null, serialNumber=null, idEmpresa=3)

El objeto dinámico existe en el SC4J. Se actualizará el registro.

Valor anterior: DyoObjectSC4J(idObject=2627458, idEmpresa=3)

Se actualizó el objeto dinámico en el SC4J.

Valor actualizado: DyoObjectSC4J(idObject=2627458, idEmpresa=3)

Se actualizó el componente en el SC4J.

Valor actualizado: MedComponenteSC4J(idComponente=32167412411168, idModelo=7610141421289292, idEstComponente=18, fecCreacion=2023-01-21 13:06:16.0, idPropiedad=12, anoFabricacion=null, nroFabrica=null, idAccionRealizada=null, idCondCreacion=null, esControlInterno=N, esPrototipo=N, idTipTransfor=null, codTipComponente=ME, idEquipo=null, idRespMedicion=null, idModMedicion=null, telMedicion=null, ubiInstalacion=null, idUbicacion=10952800, typeUbicacion=com.synapsis.synergia.nucleo.domain.interfaces.servicioelectrico.ServicioElectrico, idDynamicobject=2627458, horaReloj=null, horaVerif=null, idRelacion=null, idNev=null, idTipMedida=null, nroComponente=9535, ubicacionInstMedidor=null, fechaSuministro=2023-01-17 00:00:00.0, suministradorComponente=null, reacondicionado=N, idMotivoBaja=null, factorInterno=null, serialNumber=null, idEmpresa=3)

Las medidas del medidor existen en el SC4J. Se actualizará el registro.

Valor anterior: [MedMedidaMedidorSC4J(idMedidaMedidor=4214914, idEmpresa=3, idComponente=32167412411168, idMedida=1, idEntDec=52, cantEnteros=5, cantDecimales=2, idFactor=6000, valFactor=60.0, idTipCalculo=10), MedMedidaMedidorSC4J(idMedidaMedidor=4214915, idEmpresa=3, idComponente=32167412411168, idMedida=4, idEntDec=112, cantEnteros=3, cantDecimales=3, idFactor=6000, valFactor=60.0, idTipCalculo=10), MedMedidaMedidorSC4J(idMedidaMedidor=4214916, idEmpresa=3, idComponente=32167412411168, idMedida=5, idEntDec=112, cantEnteros=3, cantDecimales=3, idFactor=6000, valFactor=60.0, idTipCalculo=10)]

Se actualizó la medida del medidor en el SC4J.

Valor actualizado: MedMedidaMedidorSC4J(idMedidaMedidor=4214916, idEmpresa=3, idComponente=32167412411168, idMedida=5, idEntDec=112, cantEnteros=3, cantDecimales=3, idFactor=6000, valFactor=60.0, idTipCalculo=10)

Se actualizó la medida del medidor en el SC4J.

Valor actualizado: MedMedidaMedidorSC4J(idMedidaMedidor=4214915, idEmpresa=3, idComponente=32167412411168, idMedida=4, idEntDec=112, cantEnteros=3, cantDecimales=3, idFactor=6000, valFactor=60.0, idTipCalculo=10)

Se actualizó la medida del medidor en el SC4J.

Valor actualizado: MedMedidaMedidorSC4J(idMedidaMedidor=4214914, idEmpresa=3, idComponente=32167412411168, idMedida=1, idEntDec=52, cantEnteros=5, cantDecimales=2, idFactor=6000, valFactor=60.0, idTipCalculo=10)

Las medidas del modelo del medidor existen en el SC4J. Se actualizará el registro.

Valor anterior: [MedMedidaModeloSC4J(idMedidaModelo=4821, idModelo=7610141421289292, idMedida=1, idEntDec=52, idTipCalculo=10, constante=null, idUnidadMedidaCte=null, idClasePrecision=null, idEmpresa=1), MedMedidaModeloSC4J(idMedidaModelo=4822, idModelo=7610141421289292, idMedida=4, idEntDec=112, idTipCalculo=10, constante=null, idUnidadMedidaCte=null, idClasePrecision=null, idEmpresa=1), MedMedidaModeloSC4J(idMedidaModelo=4823, idModelo=7610141421289292, idMedida=5, idEntDec=112, idTipCalculo=10, constante=null, idUnidadMedidaCte=null, idClasePrecision=null, idEmpresa=1)]

